Exercise 08
…
From what I can see there are two categorical variables and the rest are numeric. To select the data frame which only contains the quantitative variables,

d_quantitative <-  d %>%
  select(where(is.numeric))

d_quantitative

# A tibble: 301 × 11
   Social_learning Research_effort   ECV Group_size Gestation Weaning Longevity
             <dbl>           <dbl> <dbl>      <dbl>     <dbl>   <dbl>     <dbl>
 1               0               6  58.0       40         NA     106.      276 
 2               0               6  NA          1         NA      NA        NA 
 3               0              15  52.8        7.4       NA      NA        NA 
 4               0              45  52.6        8.9      186.    323.      244.
 5               0              37  51.7        7.4       NA      NA        NA 
 6               3              79  49.9       13.1      185.    496.      300 
 7               0              25  51.1        5.5      186.     NA       240 
 8               0               4  59.1       NA         NA      NA        NA 
 9               0              82  55.2        7.9      190.    370.      300 
10               0              22  20.7        4.1       NA     230.       NA 
# ℹ 291 more rows
# ℹ 4 more variables: Sex_maturity <dbl>, Body_mass <dbl>,
#   Maternal_investment <dbl>, Repro_lifespan <dbl>
…
Calculating ordinary least squares regression coefficients beta 1 and beta 0 for ECV as a function of social group size.

That means we need the regression where,

ECV = beta0 + beta1(Group_size)

As instructed I need to remove the rows from my data set where one of these variables is missing. I am using the initial data set for this.

d1 <- d %>%
  select(ECV, Group_size) %>%
  drop_na() # dropping missing values

d1

# A tibble: 151 × 2
     ECV Group_size
   <dbl>      <dbl>
 1 58.0       40   
 2 52.8        7.4 
 3 52.6        8.9 
 4 51.7        7.4 
 5 49.9       13.1 
 6 51.1        5.5 
 7 55.2        7.9 
 8 20.7        4.1 
 9 16.8        3.15
10  6.92       1   
# ℹ 141 more rows
…
unique(d$Taxonomic_group)

[1] "Catarrhini"   "Platyrrhini"  "Strepsirhini"

Now from the data set i can filter only these three requested groups. This will give the data set including only the three specified groups.

d_groups <- d %>%
  select(ECV, Group_size, Taxonomic_group) %>%
  drop_na() %>%
  filter(Taxonomic_group %in% c("Catarrhini", "Platyrrhini", "Strepsirhini"))

d_groups

# A tibble: 151 × 3
     ECV Group_size Taxonomic_group
   <dbl>      <dbl> <chr>          
 1 58.0       40    Catarrhini     
 2 52.8        7.4  Platyrrhini    
 3 52.6        8.9  Platyrrhini    
 4 51.7        7.4  Platyrrhini    
 5 49.9       13.1  Platyrrhini    
 6 51.1        5.5  Platyrrhini    
 7 55.2        7.9  Platyrrhini    
 8 20.7        4.1  Platyrrhini    
 9 16.8        3.15 Platyrrhini    
10  6.92       1    Strepsirhini   
# ℹ 141 more rows
…
